<svg class="bob" font-family="arial" font-size="14" height="160" width="1032" xmlns="http://www.w3.org/2000/svg">
<defs>
<marker id="triangle" markerHeight="8" markerWidth="8" orient="auto" refX="4" refY="2" viewBox="0 0 8 4">
<polygon fill="black" points="0,0 0,4 8,2 0,0"/>
</marker>
<marker id="clear_triangle" markerHeight="10" markerWidth="10" orient="auto" refX="1" refY="7" viewBox="0 0 20 14">
<polygon fill="none" points="2,2 2,12 18,7 2,2" stroke="black" stroke-width="2"/>
</marker>
<marker id="circle" markerHeight="5" markerWidth="5" orient="auto" refX="10" refY="10" viewBox="0 0 20 20">
<circle cx="10" cy="10" fill="black" r="8"/>
</marker>
<marker id="square" markerHeight="5" markerWidth="5" orient="auto" refX="10" refY="10" viewBox="0 0 20 20">
<rect fill="black" height="20" width="20" x="0" y="0"/>
</marker>
<marker id="open_circle" markerHeight="10" markerWidth="10" orient="auto" refX="10" refY="10" viewBox="0 0 20 20">
<circle cx="10" cy="10" fill="white" r="4" stroke="black" stroke-width="2"/>
</marker>
<marker id="big_open_circle" markerHeight="20" markerWidth="20" orient="auto" refX="20" refY="20" viewBox="0 0 40 40">
<circle cx="20" cy="20" fill="white" r="6" stroke="black" stroke-width="2"/>
</marker>
</defs>
<style type="text/css">

    line,path {
      stroke: black;
      stroke-width: 2;
      stroke-opacity: 1;
      fill-opacity: 1;
      stroke-linecap: round;
      stroke-linejoin: miter;
    }
    line.dashed {
        stroke-dasharray: 5;
    }
    circle.solid {
      fill:black;
      stroke: black;
      stroke-width: 2;
      stroke-opacity: 1;
      fill-opacity: 1;
      stroke-linecap: round;
      stroke-linejoin: miter;
    }
    circle.open {
      fill:none;
      stroke: black;
      stroke-width: 2;
      stroke-opacity: 1;
      fill-opacity: 1;
      stroke-linecap: round;
      stroke-linejoin: miter;
    }
    tspan.head{
        fill: none;
        stroke: none;
    }
    
</style>
<rect fill="white" height="160" width="1032" x="0" y="0"/>
<g>
<line x1="4" x2="4" y1="40" y2="104"/>
<line x1="4" x2="16" y1="40" y2="40"/>
<line x1="4" x2="16" y1="104" y2="104"/>
<path d="M 16 104 A 4 4 0 0 0 20 100" fill="none"/>
<path d="M 20 44 A 4 4 0 0 0 16 40" fill="none"/>
<path d="M 20 100 A 4 4 0 0 0 24 104" fill="none"/>
<path d="M 24 40 A 4 4 0 0 0 20 44" fill="none"/>
</g>
<g>
<line x1="24" x2="32" y1="40" y2="40"/>
<path d="M 36 44 A 4 4 0 0 0 32 40" fill="none"/>
<path d="M 40 40 A 4 4 0 0 0 36 44" fill="none"/>
</g>
<g>
<line x1="24" x2="32" y1="104" y2="104"/>
<path d="M 32 104 A 4 4 0 0 0 36 100" fill="none"/>
<path d="M 36 100 A 4 4 0 0 0 40 104" fill="none"/>
</g>
<g>
<line x1="40" x2="48" y1="40" y2="40"/>
<path d="M 52 44 A 4 4 0 0 0 48 40" fill="none"/>
<path d="M 56 40 A 4 4 0 0 0 52 44" fill="none"/>
</g>
<g>
<line x1="40" x2="48" y1="104" y2="104"/>
<path d="M 48 104 A 4 4 0 0 0 52 100" fill="none"/>
<path d="M 52 100 A 4 4 0 0 0 56 104" fill="none"/>
</g>
<g>
<line x1="56" x2="64" y1="40" y2="40"/>
<path d="M 68 44 A 4 4 0 0 0 64 40" fill="none"/>
<path d="M 72 40 A 4 4 0 0 0 68 44" fill="none"/>
</g>
<g>
<line x1="56" x2="64" y1="104" y2="104"/>
<path d="M 64 104 A 4 4 0 0 0 68 100" fill="none"/>
<path d="M 68 100 A 4 4 0 0 0 72 104" fill="none"/>
</g>
<g>
<line x1="68" x2="68" y1="44" y2="100"/>
</g>
<g>
<line x1="72" x2="80" y1="40" y2="40"/>
<path d="M 84 44 A 4 4 0 0 0 80 40" fill="none"/>
<path d="M 88 40 A 4 4 0 0 0 84 44" fill="none"/>
</g>
<g>
<line x1="72" x2="80" y1="104" y2="104"/>
<path d="M 80 104 A 4 4 0 0 0 84 100" fill="none"/>
<path d="M 84 100 A 4 4 0 0 0 88 104" fill="none"/>
</g>
<g>
<line x1="88" x2="96" y1="40" y2="40"/>
<path d="M 100 44 A 4 4 0 0 0 96 40" fill="none"/>
<path d="M 104 40 A 4 4 0 0 0 100 44" fill="none"/>
</g>
<g>
<line x1="88" x2="96" y1="104" y2="104"/>
<path d="M 96 104 A 4 4 0 0 0 100 100" fill="none"/>
<path d="M 100 100 A 4 4 0 0 0 104 104" fill="none"/>
</g>
<g>
<line x1="104" x2="112" y1="40" y2="40"/>
<path d="M 116 44 A 4 4 0 0 0 112 40" fill="none"/>
<path d="M 120 40 A 4 4 0 0 0 116 44" fill="none"/>
</g>
<g>
<line x1="104" x2="112" y1="104" y2="104"/>
<path d="M 112 104 A 4 4 0 0 0 116 100" fill="none"/>
<path d="M 116 100 A 4 4 0 0 0 120 104" fill="none"/>
</g>
<g>
<line x1="120" x2="128" y1="40" y2="40"/>
<path d="M 132 44 A 4 4 0 0 0 128 40" fill="none"/>
<path d="M 136 40 A 4 4 0 0 0 132 44" fill="none"/>
</g>
<g>
<line x1="120" x2="128" y1="104" y2="104"/>
<path d="M 128 104 A 4 4 0 0 0 132 100" fill="none"/>
<path d="M 132 100 A 4 4 0 0 0 136 104" fill="none"/>
</g>
<g>
<line x1="136" x2="144" y1="40" y2="40"/>
<path d="M 148 44 A 4 4 0 0 0 144 40" fill="none"/>
<path d="M 152 40 A 4 4 0 0 0 148 44" fill="none"/>
</g>
<g>
<line x1="136" x2="144" y1="104" y2="104"/>
<path d="M 144 104 A 4 4 0 0 0 148 100" fill="none"/>
<path d="M 148 100 A 4 4 0 0 0 152 104" fill="none"/>
</g>
<g>
<line x1="148" x2="148" y1="44" y2="100"/>
</g>
<g>
<line x1="152" x2="160" y1="40" y2="40"/>
<path d="M 164 44 A 4 4 0 0 0 160 40" fill="none"/>
<path d="M 168 40 A 4 4 0 0 0 164 44" fill="none"/>
</g>
<g>
<line x1="152" x2="160" y1="104" y2="104"/>
<path d="M 160 104 A 4 4 0 0 0 164 100" fill="none"/>
<path d="M 164 100 A 4 4 0 0 0 168 104" fill="none"/>
</g>
<g>
<line x1="168" x2="176" y1="40" y2="40"/>
<path d="M 180 44 A 4 4 0 0 0 176 40" fill="none"/>
<path d="M 184 40 A 4 4 0 0 0 180 44" fill="none"/>
</g>
<g>
<line x1="168" x2="176" y1="104" y2="104"/>
<path d="M 176 104 A 4 4 0 0 0 180 100" fill="none"/>
<path d="M 180 100 A 4 4 0 0 0 184 104" fill="none"/>
</g>
<g>
<line x1="184" x2="192" y1="40" y2="40"/>
<path d="M 196 44 A 4 4 0 0 0 192 40" fill="none"/>
<path d="M 200 40 A 4 4 0 0 0 196 44" fill="none"/>
</g>
<g>
<line x1="184" x2="192" y1="104" y2="104"/>
<path d="M 192 104 A 4 4 0 0 0 196 100" fill="none"/>
<path d="M 196 100 A 4 4 0 0 0 200 104" fill="none"/>
</g>
<g>
<line x1="200" x2="208" y1="40" y2="40"/>
<path d="M 212 44 A 4 4 0 0 0 208 40" fill="none"/>
<path d="M 216 40 A 4 4 0 0 0 212 44" fill="none"/>
</g>
<g>
<line x1="200" x2="208" y1="104" y2="104"/>
<path d="M 208 104 A 4 4 0 0 0 212 100" fill="none"/>
<path d="M 212 100 A 4 4 0 0 0 216 104" fill="none"/>
</g>
<g>
<line x1="216" x2="224" y1="40" y2="40"/>
<path d="M 228 44 A 4 4 0 0 0 224 40" fill="none"/>
<path d="M 232 40 A 4 4 0 0 0 228 44" fill="none"/>
</g>
<g>
<line x1="216" x2="224" y1="104" y2="104"/>
<path d="M 224 104 A 4 4 0 0 0 228 100" fill="none"/>
<path d="M 228 100 A 4 4 0 0 0 232 104" fill="none"/>
</g>
<g>
<line x1="228" x2="228" y1="44" y2="100"/>
</g>
<g>
<line x1="232" x2="240" y1="40" y2="40"/>
<path d="M 244 44 A 4 4 0 0 0 240 40" fill="none"/>
<path d="M 248 40 A 4 4 0 0 0 244 44" fill="none"/>
</g>
<g>
<line x1="232" x2="240" y1="104" y2="104"/>
<path d="M 240 104 A 4 4 0 0 0 244 100" fill="none"/>
<path d="M 244 100 A 4 4 0 0 0 248 104" fill="none"/>
</g>
<g>
<line x1="248" x2="256" y1="40" y2="40"/>
<path d="M 260 44 A 4 4 0 0 0 256 40" fill="none"/>
<path d="M 264 40 A 4 4 0 0 0 260 44" fill="none"/>
</g>
<g>
<line x1="248" x2="256" y1="104" y2="104"/>
<path d="M 256 104 A 4 4 0 0 0 260 100" fill="none"/>
<path d="M 260 100 A 4 4 0 0 0 264 104" fill="none"/>
</g>
<g>
<line x1="264" x2="272" y1="40" y2="40"/>
<path d="M 276 44 A 4 4 0 0 0 272 40" fill="none"/>
<path d="M 280 40 A 4 4 0 0 0 276 44" fill="none"/>
</g>
<g>
<line x1="264" x2="272" y1="104" y2="104"/>
<path d="M 272 104 A 4 4 0 0 0 276 100" fill="none"/>
<path d="M 276 100 A 4 4 0 0 0 280 104" fill="none"/>
</g>
<g>
<line x1="280" x2="288" y1="40" y2="40"/>
<path d="M 292 44 A 4 4 0 0 0 288 40" fill="none"/>
<path d="M 296 40 A 4 4 0 0 0 292 44" fill="none"/>
</g>
<g>
<line x1="280" x2="288" y1="104" y2="104"/>
<path d="M 288 104 A 4 4 0 0 0 292 100" fill="none"/>
<path d="M 292 100 A 4 4 0 0 0 296 104" fill="none"/>
</g>
<g>
<line x1="296" x2="304" y1="40" y2="40"/>
<path d="M 308 44 A 4 4 0 0 0 304 40" fill="none"/>
<path d="M 312 40 A 4 4 0 0 0 308 44" fill="none"/>
</g>
<g>
<line x1="296" x2="304" y1="104" y2="104"/>
<path d="M 304 104 A 4 4 0 0 0 308 100" fill="none"/>
<path d="M 308 100 A 4 4 0 0 0 312 104" fill="none"/>
</g>
<g>
<line x1="308" x2="308" y1="44" y2="100"/>
</g>
<g>
<line x1="312" x2="320" y1="40" y2="40"/>
<path d="M 324 44 A 4 4 0 0 0 320 40" fill="none"/>
<path d="M 328 40 A 4 4 0 0 0 324 44" fill="none"/>
</g>
<g>
<line x1="312" x2="320" y1="104" y2="104"/>
<path d="M 320 104 A 4 4 0 0 0 324 100" fill="none"/>
<path d="M 324 100 A 4 4 0 0 0 328 104" fill="none"/>
</g>
<g>
<line x1="328" x2="336" y1="40" y2="40"/>
<path d="M 340 44 A 4 4 0 0 0 336 40" fill="none"/>
<path d="M 344 40 A 4 4 0 0 0 340 44" fill="none"/>
</g>
<g>
<line x1="328" x2="336" y1="104" y2="104"/>
<path d="M 336 104 A 4 4 0 0 0 340 100" fill="none"/>
<path d="M 340 100 A 4 4 0 0 0 344 104" fill="none"/>
</g>
<g>
<line x1="344" x2="352" y1="40" y2="40"/>
<path d="M 356 44 A 4 4 0 0 0 352 40" fill="none"/>
<path d="M 360 40 A 4 4 0 0 0 356 44" fill="none"/>
</g>
<g>
<line x1="344" x2="352" y1="104" y2="104"/>
<path d="M 352 104 A 4 4 0 0 0 356 100" fill="none"/>
<path d="M 356 100 A 4 4 0 0 0 360 104" fill="none"/>
</g>
<g>
<line x1="360" x2="368" y1="40" y2="40"/>
<path d="M 372 44 A 4 4 0 0 0 368 40" fill="none"/>
<path d="M 376 40 A 4 4 0 0 0 372 44" fill="none"/>
</g>
<g>
<line x1="360" x2="368" y1="104" y2="104"/>
<path d="M 368 104 A 4 4 0 0 0 372 100" fill="none"/>
<path d="M 372 100 A 4 4 0 0 0 376 104" fill="none"/>
</g>
<g>
<line x1="376" x2="384" y1="40" y2="40"/>
<path d="M 388 44 A 4 4 0 0 0 384 40" fill="none"/>
<path d="M 392 40 A 4 4 0 0 0 388 44" fill="none"/>
</g>
<g>
<line x1="376" x2="384" y1="104" y2="104"/>
<path d="M 384 104 A 4 4 0 0 0 388 100" fill="none"/>
<path d="M 388 100 A 4 4 0 0 0 392 104" fill="none"/>
</g>
<g>
<line x1="388" x2="388" y1="44" y2="100"/>
</g>
<g>
<line x1="392" x2="400" y1="40" y2="40"/>
<path d="M 404 44 A 4 4 0 0 0 400 40" fill="none"/>
<path d="M 408 40 A 4 4 0 0 0 404 44" fill="none"/>
</g>
<g>
<line x1="392" x2="400" y1="104" y2="104"/>
<path d="M 400 104 A 4 4 0 0 0 404 100" fill="none"/>
<path d="M 404 100 A 4 4 0 0 0 408 104" fill="none"/>
</g>
<g>
<line x1="408" x2="416" y1="40" y2="40"/>
<path d="M 420 44 A 4 4 0 0 0 416 40" fill="none"/>
<path d="M 424 40 A 4 4 0 0 0 420 44" fill="none"/>
</g>
<g>
<line x1="408" x2="416" y1="104" y2="104"/>
<path d="M 416 104 A 4 4 0 0 0 420 100" fill="none"/>
<path d="M 420 100 A 4 4 0 0 0 424 104" fill="none"/>
</g>
<g>
<line x1="424" x2="432" y1="40" y2="40"/>
<path d="M 436 44 A 4 4 0 0 0 432 40" fill="none"/>
<path d="M 440 40 A 4 4 0 0 0 436 44" fill="none"/>
</g>
<g>
<line x1="424" x2="432" y1="104" y2="104"/>
<path d="M 432 104 A 4 4 0 0 0 436 100" fill="none"/>
<path d="M 436 100 A 4 4 0 0 0 440 104" fill="none"/>
</g>
<g>
<line x1="440" x2="448" y1="40" y2="40"/>
<path d="M 452 44 A 4 4 0 0 0 448 40" fill="none"/>
<path d="M 456 40 A 4 4 0 0 0 452 44" fill="none"/>
</g>
<g>
<line x1="440" x2="448" y1="104" y2="104"/>
<path d="M 448 104 A 4 4 0 0 0 452 100" fill="none"/>
<path d="M 452 100 A 4 4 0 0 0 456 104" fill="none"/>
</g>
<g>
<line x1="456" x2="464" y1="40" y2="40"/>
<path d="M 468 44 A 4 4 0 0 0 464 40" fill="none"/>
<path d="M 472 40 A 4 4 0 0 0 468 44" fill="none"/>
</g>
<g>
<line x1="456" x2="464" y1="104" y2="104"/>
<path d="M 464 104 A 4 4 0 0 0 468 100" fill="none"/>
<path d="M 468 100 A 4 4 0 0 0 472 104" fill="none"/>
</g>
<g>
<line x1="468" x2="468" y1="44" y2="100"/>
</g>
<g>
<line x1="472" x2="480" y1="40" y2="40"/>
<path d="M 484 44 A 4 4 0 0 0 480 40" fill="none"/>
<path d="M 488 40 A 4 4 0 0 0 484 44" fill="none"/>
</g>
<g>
<line x1="472" x2="480" y1="104" y2="104"/>
<path d="M 480 104 A 4 4 0 0 0 484 100" fill="none"/>
<path d="M 484 100 A 4 4 0 0 0 488 104" fill="none"/>
</g>
<g>
<line x1="488" x2="496" y1="40" y2="40"/>
<path d="M 500 44 A 4 4 0 0 0 496 40" fill="none"/>
<path d="M 504 40 A 4 4 0 0 0 500 44" fill="none"/>
</g>
<g>
<line x1="488" x2="496" y1="104" y2="104"/>
<path d="M 496 104 A 4 4 0 0 0 500 100" fill="none"/>
<path d="M 500 100 A 4 4 0 0 0 504 104" fill="none"/>
</g>
<g>
<line x1="504" x2="512" y1="40" y2="40"/>
<path d="M 516 44 A 4 4 0 0 0 512 40" fill="none"/>
<path d="M 520 40 A 4 4 0 0 0 516 44" fill="none"/>
</g>
<g>
<line x1="504" x2="512" y1="104" y2="104"/>
<path d="M 512 104 A 4 4 0 0 0 516 100" fill="none"/>
<path d="M 516 100 A 4 4 0 0 0 520 104" fill="none"/>
</g>
<g>
<line x1="520" x2="528" y1="40" y2="40"/>
<path d="M 532 44 A 4 4 0 0 0 528 40" fill="none"/>
<path d="M 536 40 A 4 4 0 0 0 532 44" fill="none"/>
</g>
<g>
<line x1="520" x2="528" y1="104" y2="104"/>
<path d="M 528 104 A 4 4 0 0 0 532 100" fill="none"/>
<path d="M 532 100 A 4 4 0 0 0 536 104" fill="none"/>
</g>
<g>
<line x1="536" x2="544" y1="40" y2="40"/>
<path d="M 548 44 A 4 4 0 0 0 544 40" fill="none"/>
<path d="M 552 40 A 4 4 0 0 0 548 44" fill="none"/>
</g>
<g>
<line x1="536" x2="544" y1="104" y2="104"/>
<path d="M 544 104 A 4 4 0 0 0 548 100" fill="none"/>
<path d="M 548 100 A 4 4 0 0 0 552 104" fill="none"/>
</g>
<g>
<line x1="548" x2="548" y1="44" y2="100"/>
</g>
<g>
<line x1="552" x2="560" y1="40" y2="40"/>
<path d="M 564 44 A 4 4 0 0 0 560 40" fill="none"/>
<path d="M 568 40 A 4 4 0 0 0 564 44" fill="none"/>
</g>
<g>
<line x1="552" x2="560" y1="104" y2="104"/>
<path d="M 560 104 A 4 4 0 0 0 564 100" fill="none"/>
<path d="M 564 100 A 4 4 0 0 0 568 104" fill="none"/>
</g>
<g>
<line x1="568" x2="576" y1="40" y2="40"/>
<path d="M 580 44 A 4 4 0 0 0 576 40" fill="none"/>
<path d="M 584 40 A 4 4 0 0 0 580 44" fill="none"/>
</g>
<g>
<line x1="568" x2="576" y1="104" y2="104"/>
<path d="M 576 104 A 4 4 0 0 0 580 100" fill="none"/>
<path d="M 580 100 A 4 4 0 0 0 584 104" fill="none"/>
</g>
<g>
<line x1="584" x2="592" y1="40" y2="40"/>
<path d="M 596 44 A 4 4 0 0 0 592 40" fill="none"/>
<path d="M 600 40 A 4 4 0 0 0 596 44" fill="none"/>
</g>
<g>
<line x1="584" x2="592" y1="104" y2="104"/>
<path d="M 592 104 A 4 4 0 0 0 596 100" fill="none"/>
<path d="M 596 100 A 4 4 0 0 0 600 104" fill="none"/>
</g>
<g>
<line x1="600" x2="608" y1="40" y2="40"/>
<path d="M 612 44 A 4 4 0 0 0 608 40" fill="none"/>
<path d="M 616 40 A 4 4 0 0 0 612 44" fill="none"/>
</g>
<g>
<line x1="600" x2="608" y1="104" y2="104"/>
<path d="M 608 104 A 4 4 0 0 0 612 100" fill="none"/>
<path d="M 612 100 A 4 4 0 0 0 616 104" fill="none"/>
</g>
<g>
<line x1="616" x2="624" y1="40" y2="40"/>
<path d="M 628 44 A 4 4 0 0 0 624 40" fill="none"/>
<path d="M 632 40 A 4 4 0 0 0 628 44" fill="none"/>
</g>
<g>
<line x1="616" x2="624" y1="104" y2="104"/>
<path d="M 624 104 A 4 4 0 0 0 628 100" fill="none"/>
<path d="M 628 100 A 4 4 0 0 0 632 104" fill="none"/>
</g>
<g>
<line x1="628" x2="628" y1="44" y2="100"/>
</g>
<g>
<line x1="632" x2="640" y1="40" y2="40"/>
<path d="M 644 44 A 4 4 0 0 0 640 40" fill="none"/>
<path d="M 648 40 A 4 4 0 0 0 644 44" fill="none"/>
</g>
<g>
<line x1="632" x2="640" y1="104" y2="104"/>
<path d="M 640 104 A 4 4 0 0 0 644 100" fill="none"/>
<path d="M 644 100 A 4 4 0 0 0 648 104" fill="none"/>
</g>
<g>
<line x1="648" x2="656" y1="40" y2="40"/>
<path d="M 660 44 A 4 4 0 0 0 656 40" fill="none"/>
<path d="M 664 40 A 4 4 0 0 0 660 44" fill="none"/>
</g>
<g>
<line x1="648" x2="656" y1="104" y2="104"/>
<path d="M 656 104 A 4 4 0 0 0 660 100" fill="none"/>
<path d="M 660 100 A 4 4 0 0 0 664 104" fill="none"/>
</g>
<g>
<line x1="664" x2="672" y1="40" y2="40"/>
<path d="M 676 44 A 4 4 0 0 0 672 40" fill="none"/>
<path d="M 680 40 A 4 4 0 0 0 676 44" fill="none"/>
</g>
<g>
<line x1="664" x2="672" y1="104" y2="104"/>
<path d="M 672 104 A 4 4 0 0 0 676 100" fill="none"/>
<path d="M 676 100 A 4 4 0 0 0 680 104" fill="none"/>
</g>
<g>
<line x1="680" x2="688" y1="40" y2="40"/>
<path d="M 692 44 A 4 4 0 0 0 688 40" fill="none"/>
<path d="M 696 40 A 4 4 0 0 0 692 44" fill="none"/>
</g>
<g>
<line x1="680" x2="688" y1="104" y2="104"/>
<path d="M 688 104 A 4 4 0 0 0 692 100" fill="none"/>
<path d="M 692 100 A 4 4 0 0 0 696 104" fill="none"/>
</g>
<g>
<line x1="696" x2="704" y1="40" y2="40"/>
<path d="M 708 44 A 4 4 0 0 0 704 40" fill="none"/>
<path d="M 712 40 A 4 4 0 0 0 708 44" fill="none"/>
</g>
<g>
<line x1="696" x2="704" y1="104" y2="104"/>
<path d="M 704 104 A 4 4 0 0 0 708 100" fill="none"/>
<path d="M 708 100 A 4 4 0 0 0 712 104" fill="none"/>
</g>
<g>
<line x1="708" x2="708" y1="44" y2="100"/>
</g>
<g>
<line x1="712" x2="720" y1="40" y2="40"/>
<path d="M 724 44 A 4 4 0 0 0 720 40" fill="none"/>
<path d="M 728 40 A 4 4 0 0 0 724 44" fill="none"/>
</g>
<g>
<line x1="712" x2="720" y1="104" y2="104"/>
<path d="M 720 104 A 4 4 0 0 0 724 100" fill="none"/>
<path d="M 724 100 A 4 4 0 0 0 728 104" fill="none"/>
</g>
<g>
<line x1="728" x2="736" y1="40" y2="40"/>
<path d="M 740 44 A 4 4 0 0 0 736 40" fill="none"/>
<path d="M 744 40 A 4 4 0 0 0 740 44" fill="none"/>
</g>
<g>
<line x1="728" x2="736" y1="104" y2="104"/>
<path d="M 736 104 A 4 4 0 0 0 740 100" fill="none"/>
<path d="M 740 100 A 4 4 0 0 0 744 104" fill="none"/>
</g>
<g>
<line x1="744" x2="752" y1="40" y2="40"/>
<path d="M 756 44 A 4 4 0 0 0 752 40" fill="none"/>
<path d="M 760 40 A 4 4 0 0 0 756 44" fill="none"/>
</g>
<g>
<line x1="744" x2="752" y1="104" y2="104"/>
<path d="M 752 104 A 4 4 0 0 0 756 100" fill="none"/>
<path d="M 756 100 A 4 4 0 0 0 760 104" fill="none"/>
</g>
<g>
<line x1="760" x2="768" y1="40" y2="40"/>
<path d="M 772 44 A 4 4 0 0 0 768 40" fill="none"/>
<path d="M 776 40 A 4 4 0 0 0 772 44" fill="none"/>
</g>
<g>
<line x1="760" x2="768" y1="104" y2="104"/>
<path d="M 768 104 A 4 4 0 0 0 772 100" fill="none"/>
<path d="M 772 100 A 4 4 0 0 0 776 104" fill="none"/>
</g>
<g>
<line x1="776" x2="784" y1="40" y2="40"/>
<path d="M 788 44 A 4 4 0 0 0 784 40" fill="none"/>
<path d="M 792 40 A 4 4 0 0 0 788 44" fill="none"/>
</g>
<g>
<line x1="776" x2="784" y1="104" y2="104"/>
<path d="M 784 104 A 4 4 0 0 0 788 100" fill="none"/>
<path d="M 788 100 A 4 4 0 0 0 792 104" fill="none"/>
</g>
<g>
<line x1="788" x2="788" y1="44" y2="100"/>
</g>
<g>
<line x1="792" x2="800" y1="40" y2="40"/>
<path d="M 804 44 A 4 4 0 0 0 800 40" fill="none"/>
<path d="M 808 40 A 4 4 0 0 0 804 44" fill="none"/>
</g>
<g>
<line x1="792" x2="800" y1="104" y2="104"/>
<path d="M 800 104 A 4 4 0 0 0 804 100" fill="none"/>
<path d="M 804 100 A 4 4 0 0 0 808 104" fill="none"/>
</g>
<g>
<line x1="808" x2="816" y1="40" y2="40"/>
<path d="M 820 44 A 4 4 0 0 0 816 40" fill="none"/>
<path d="M 824 40 A 4 4 0 0 0 820 44" fill="none"/>
</g>
<g>
<line x1="808" x2="816" y1="104" y2="104"/>
<path d="M 816 104 A 4 4 0 0 0 820 100" fill="none"/>
<path d="M 820 100 A 4 4 0 0 0 824 104" fill="none"/>
</g>
<g>
<line x1="824" x2="832" y1="40" y2="40"/>
<path d="M 836 44 A 4 4 0 0 0 832 40" fill="none"/>
<path d="M 840 40 A 4 4 0 0 0 836 44" fill="none"/>
</g>
<g>
<line x1="824" x2="832" y1="104" y2="104"/>
<path d="M 832 104 A 4 4 0 0 0 836 100" fill="none"/>
<path d="M 836 100 A 4 4 0 0 0 840 104" fill="none"/>
</g>
<g>
<line x1="840" x2="848" y1="40" y2="40"/>
<path d="M 852 44 A 4 4 0 0 0 848 40" fill="none"/>
<path d="M 856 40 A 4 4 0 0 0 852 44" fill="none"/>
</g>
<g>
<line x1="840" x2="848" y1="104" y2="104"/>
<path d="M 848 104 A 4 4 0 0 0 852 100" fill="none"/>
<path d="M 852 100 A 4 4 0 0 0 856 104" fill="none"/>
</g>
<g>
<line x1="856" x2="864" y1="40" y2="40"/>
<path d="M 868 44 A 4 4 0 0 0 864 40" fill="none"/>
<path d="M 872 40 A 4 4 0 0 0 868 44" fill="none"/>
</g>
<g>
<line x1="856" x2="864" y1="104" y2="104"/>
<path d="M 864 104 A 4 4 0 0 0 868 100" fill="none"/>
<path d="M 868 100 A 4 4 0 0 0 872 104" fill="none"/>
</g>
<g>
<line x1="868" x2="868" y1="44" y2="100"/>
</g>
<g>
<line x1="872" x2="880" y1="40" y2="40"/>
<path d="M 884 44 A 4 4 0 0 0 880 40" fill="none"/>
<path d="M 888 40 A 4 4 0 0 0 884 44" fill="none"/>
</g>
<g>
<line x1="872" x2="880" y1="104" y2="104"/>
<path d="M 880 104 A 4 4 0 0 0 884 100" fill="none"/>
<path d="M 884 100 A 4 4 0 0 0 888 104" fill="none"/>
</g>
<g>
<line x1="888" x2="896" y1="40" y2="40"/>
<path d="M 900 44 A 4 4 0 0 0 896 40" fill="none"/>
<path d="M 904 40 A 4 4 0 0 0 900 44" fill="none"/>
</g>
<g>
<line x1="888" x2="896" y1="104" y2="104"/>
<path d="M 896 104 A 4 4 0 0 0 900 100" fill="none"/>
<path d="M 900 100 A 4 4 0 0 0 904 104" fill="none"/>
</g>
<g>
<line x1="904" x2="912" y1="40" y2="40"/>
<path d="M 916 44 A 4 4 0 0 0 912 40" fill="none"/>
<path d="M 920 40 A 4 4 0 0 0 916 44" fill="none"/>
</g>
<g>
<line x1="904" x2="912" y1="104" y2="104"/>
<path d="M 912 104 A 4 4 0 0 0 916 100" fill="none"/>
<path d="M 916 100 A 4 4 0 0 0 920 104" fill="none"/>
</g>
<g>
<line x1="920" x2="928" y1="40" y2="40"/>
<path d="M 932 44 A 4 4 0 0 0 928 40" fill="none"/>
<path d="M 936 40 A 4 4 0 0 0 932 44" fill="none"/>
</g>
<g>
<line x1="920" x2="928" y1="104" y2="104"/>
<path d="M 928 104 A 4 4 0 0 0 932 100" fill="none"/>
<path d="M 932 100 A 4 4 0 0 0 936 104" fill="none"/>
</g>
<g>
<line x1="936" x2="944" y1="40" y2="40"/>
<path d="M 948 44 A 4 4 0 0 0 944 40" fill="none"/>
<path d="M 952 40 A 4 4 0 0 0 948 44" fill="none"/>
</g>
<g>
<line x1="936" x2="944" y1="104" y2="104"/>
<path d="M 944 104 A 4 4 0 0 0 948 100" fill="none"/>
<path d="M 948 100 A 4 4 0 0 0 952 104" fill="none"/>
</g>
<g>
<line x1="948" x2="948" y1="44" y2="100"/>
</g>
<g>
<line x1="952" x2="960" y1="40" y2="40"/>
<path d="M 964 44 A 4 4 0 0 0 960 40" fill="none"/>
<path d="M 968 40 A 4 4 0 0 0 964 44" fill="none"/>
</g>
<g>
<line x1="952" x2="960" y1="104" y2="104"/>
<path d="M 960 104 A 4 4 0 0 0 964 100" fill="none"/>
<path d="M 964 100 A 4 4 0 0 0 968 104" fill="none"/>
</g>
<g>
<line x1="968" x2="976" y1="40" y2="40"/>
<path d="M 980 44 A 4 4 0 0 0 976 40" fill="none"/>
<path d="M 984 40 A 4 4 0 0 0 980 44" fill="none"/>
</g>
<g>
<line x1="968" x2="976" y1="104" y2="104"/>
<path d="M 976 104 A 4 4 0 0 0 980 100" fill="none"/>
<path d="M 980 100 A 4 4 0 0 0 984 104" fill="none"/>
</g>
<g>
<line x1="984" x2="992" y1="40" y2="40"/>
<path d="M 996 44 A 4 4 0 0 0 992 40" fill="none"/>
<path d="M 1000 40 A 4 4 0 0 0 996 44" fill="none"/>
</g>
<g>
<line x1="984" x2="992" y1="104" y2="104"/>
<path d="M 992 104 A 4 4 0 0 0 996 100" fill="none"/>
<path d="M 996 100 A 4 4 0 0 0 1000 104" fill="none"/>
</g>
<g>
<line x1="1000" x2="1008" y1="40" y2="40"/>
<path d="M 1012 44 A 4 4 0 0 0 1008 40" fill="none"/>
<path d="M 1016 40 A 4 4 0 0 0 1012 44" fill="none"/>
</g>
<g>
<line x1="1000" x2="1008" y1="104" y2="104"/>
<path d="M 1008 104 A 4 4 0 0 0 1012 100" fill="none"/>
<path d="M 1012 100 A 4 4 0 0 0 1016 104" fill="none"/>
</g>
<g>
<line x1="1016" x2="1028" y1="40" y2="40"/>
<line x1="1028" x2="1028" y1="40" y2="104"/>
</g>
<g>
<line x1="1016" x2="1028" y1="104" y2="104"/>
</g>
<g>
<text x="9" y="28">
3
</text>
</g>
<g>
<text x="9" y="124">
M
</text>
</g>
<g>
<text x="9" y="140">
S
</text>
</g>
<g>
<text x="9" y="156">
B
</text>
</g>
<g>
<text x="25" y="28">
2
</text>
</g>
<g>
<text x="33" y="76">
x
</text>
</g>
<g>
<text x="41" y="28">
1
</text>
</g>
<g>
<text x="57" y="12">
6
</text>
</g>
<g>
<text x="57" y="28">
0
</text>
</g>
<g>
<text x="73" y="28">
9
</text>
</g>
<g>
<text x="89" y="28">
8
</text>
</g>
<g>
<text x="105" y="28">
7
</text>
</g>
<g>
<text x="113" y="76">
Q4
</text>
</g>
<g>
<text x="121" y="28">
6
</text>
</g>
<g>
<text x="137" y="28">
5
</text>
</g>
<g>
<text x="153" y="28">
4
</text>
</g>
<g>
<text x="169" y="28">
3
</text>
</g>
<g>
<text x="185" y="28">
2
</text>
</g>
<g>
<text x="185" y="76">
Q3
</text>
</g>
<g>
<text x="201" y="28">
1
</text>
</g>
<g>
<text x="217" y="12">
5
</text>
</g>
<g>
<text x="217" y="28">
0
</text>
</g>
<g>
<text x="233" y="28">
9
</text>
</g>
<g>
<text x="249" y="28">
8
</text>
</g>
<g>
<text x="265" y="28">
7
</text>
</g>
<g>
<text x="265" y="76">
Q2
</text>
</g>
<g>
<text x="281" y="28">
6
</text>
</g>
<g>
<text x="297" y="28">
5
</text>
</g>
<g>
<text x="313" y="28">
4
</text>
</g>
<g>
<text x="329" y="28">
3
</text>
</g>
<g>
<text x="345" y="28">
2
</text>
</g>
<g>
<text x="345" y="76">
Q1
</text>
</g>
<g>
<text x="361" y="28">
1
</text>
</g>
<g>
<text x="377" y="12">
4
</text>
</g>
<g>
<text x="377" y="28">
0
</text>
</g>
<g>
<text x="393" y="28">
9
</text>
</g>
<g>
<text x="409" y="28">
8
</text>
</g>
<g>
<text x="425" y="28">
7
</text>
</g>
<g>
<text x="425" y="76">
Q0
</text>
</g>
<g>
<text x="441" y="28">
6
</text>
</g>
<g>
<text x="457" y="28">
5
</text>
</g>
<g>
<text x="473" y="28">
4
</text>
</g>
<g>
<text x="489" y="28">
3
</text>
</g>
<g>
<text x="505" y="28">
2
</text>
</g>
<g>
<text x="505" y="76">
P
</text>
</g>
<g>
<text x="521" y="28">
1
</text>
</g>
<g>
<text x="537" y="12">
3
</text>
</g>
<g>
<text x="537" y="28">
0
</text>
</g>
<g>
<text x="553" y="28">
9
</text>
</g>
<g>
<text x="569" y="28">
8
</text>
</g>
<g>
<text x="585" y="28">
7
</text>
</g>
<g>
<text x="585" y="76">
T2
</text>
</g>
<g>
<text x="601" y="28">
6
</text>
</g>
<g>
<text x="617" y="28">
5
</text>
</g>
<g>
<text x="633" y="28">
4
</text>
</g>
<g>
<text x="649" y="28">
3
</text>
</g>
<g>
<text x="665" y="28">
2
</text>
</g>
<g>
<text x="665" y="76">
T1
</text>
</g>
<g>
<text x="681" y="28">
1
</text>
</g>
<g>
<text x="697" y="12">
2
</text>
</g>
<g>
<text x="697" y="28">
0
</text>
</g>
<g>
<text x="713" y="28">
9
</text>
</g>
<g>
<text x="729" y="28">
8
</text>
</g>
<g>
<text x="745" y="28">
7
</text>
</g>
<g>
<text x="745" y="76">
T0
</text>
</g>
<g>
<text x="761" y="28">
6
</text>
</g>
<g>
<text x="777" y="28">
5
</text>
</g>
<g>
<text x="793" y="28">
4
</text>
</g>
<g>
<text x="809" y="28">
3
</text>
</g>
<g>
<text x="825" y="28">
2
</text>
</g>
<g>
<text x="825" y="76">
D
</text>
</g>
<g>
<text x="841" y="28">
1
</text>
</g>
<g>
<text x="857" y="12">
1
</text>
</g>
<g>
<text x="857" y="28">
0
</text>
</g>
<g>
<text x="873" y="28">
9
</text>
</g>
<g>
<text x="889" y="28">
8
</text>
</g>
<g>
<text x="905" y="28">
7
</text>
</g>
<g>
<text x="905" y="76">
M
</text>
</g>
<g>
<text x="921" y="28">
6
</text>
</g>
<g>
<text x="937" y="28">
5
</text>
</g>
<g>
<text x="953" y="28">
4
</text>
</g>
<g>
<text x="969" y="28">
3
</text>
</g>
<g>
<text x="985" y="28">
2
</text>
</g>
<g>
<text x="985" y="76">
Y
</text>
</g>
<g>
<text x="1001" y="28">
1
</text>
</g>
<g>
<text x="1017" y="28">
0
</text>
</g>
<g>
<text x="1017" y="124">
L
</text>
</g>
<g>
<text x="1017" y="140">
S
</text>
</g>
<g>
<text x="1017" y="156">
B
</text>
</g>
</svg>